{
  "images" : [
    {
      "idiom" : "iphone",
      "scale" : "1x"
    },
    {
      "idiom" : "iphone",
      "filename" : "RamosGinFizz_Button@2x~iphone.jpg",
      "scale" : "2x"
    },
    {
      "idiom" : "iphone",
      "filename" : "RamosGinFizz_Button@3x~iphone.jpg",
      "scale" : "3x"
    },
    {
      "idiom" : "ipad",
      "scale" : "1x"
    },
    {
      "idiom" : "ipad",
      "filename" : "RamosGinFizz_Button@2x~ipad.jpg",
      "scale" : "2x"
    }
  ],
  "info" : {
    "version" : 1,
    "author" : "xcode"
  }
}